#FIG 3.2  Produced by xfig version 3.2.5c
Landscape
Center
Metric
A4      
100.00
Single
-2
1200 2
1 3 0 1 1 1 50 -1 41 0.000 1 0.0000 2250 2250 113 113 2250 2250 2363 2250
1 3 0 1 4 1 50 -1 41 0.000 1 0.0000 1800 2250 113 113 1800 2250 1913 2250
1 3 0 1 4 1 50 -1 41 0.000 1 0.0000 2250 1800 113 113 2250 1800 2363 1800
1 3 0 1 4 1 50 -1 41 0.000 1 0.0000 2700 2250 113 113 2700 2250 2813 2250
1 3 0 1 4 1 50 -1 41 0.000 1 0.0000 2250 2700 113 113 2250 2700 2363 2700
2 1 0 1 0 7 50 -1 -1 0.000 0 0 -1 0 0 2
	 450 900 4050 900
2 1 0 1 0 7 50 -1 -1 0.000 0 0 -1 0 0 2
	 900 450 900 4050
2 1 0 1 0 7 50 -1 -1 0.000 0 0 -1 0 0 2
	 450 1350 4050 1350
2 1 0 1 0 7 50 -1 -1 0.000 0 0 -1 0 0 2
	 450 1800 4050 1800
2 1 0 1 0 7 50 -1 -1 0.000 0 0 -1 0 0 2
	 450 1800 4050 1800
2 1 0 1 0 7 50 -1 -1 0.000 0 0 -1 0 0 2
	 450 1800 4050 1800
2 1 0 1 0 7 50 -1 -1 0.000 0 0 -1 0 0 2
	 450 1800 4050 1800
2 1 0 1 0 7 50 -1 -1 0.000 0 0 -1 0 0 2
	 450 1800 4050 1800
2 1 0 1 0 7 50 -1 -1 0.000 0 0 -1 0 0 2
	 450 1800 4050 1800
2 1 0 1 0 7 50 -1 -1 0.000 0 0 -1 0 0 2
	 450 1800 4050 1800
2 1 0 1 0 7 50 -1 -1 0.000 0 0 -1 0 0 2
	 450 1800 4050 1800
2 1 0 1 0 7 50 -1 -1 0.000 0 0 -1 0 0 2
	 450 1800 4050 1800
2 1 0 1 0 7 50 -1 -1 0.000 0 0 -1 0 0 2
	 450 2250 4050 2250
2 1 0 1 0 7 50 -1 -1 0.000 0 0 -1 0 0 2
	 450 2700 4050 2700
2 1 0 1 0 7 50 -1 -1 0.000 0 0 -1 0 0 2
	 450 3150 4050 3150
2 1 0 1 0 7 50 -1 -1 0.000 0 0 -1 0 0 2
	 450 3600 4050 3600
2 1 0 1 0 7 50 -1 -1 0.000 0 0 -1 0 0 2
	 1350 450 1350 4050
2 1 0 1 0 7 50 -1 -1 0.000 0 0 -1 0 0 2
	 1800 450 1800 4050
2 1 0 1 0 7 50 -1 -1 0.000 0 0 -1 0 0 2
	 2250 450 2250 4050
2 1 0 1 0 7 50 -1 -1 0.000 0 0 -1 0 0 2
	 2700 450 2700 4050
2 1 0 1 0 7 50 -1 -1 0.000 0 0 -1 0 0 2
	 3150 450 3150 4050
2 1 0 1 0 7 50 -1 -1 0.000 0 0 -1 0 0 2
	 3600 450 3600 4050
2 1 0 1 0 7 50 -1 -1 0.000 0 0 -1 1 0 2
	0 0 1.00 60.00 120.00
	 225 4275 675 4275
2 1 0 1 0 7 50 -1 -1 0.000 0 0 -1 1 0 2
	0 0 1.00 60.00 120.00
	 225 4275 225 3825
2 1 0 3 0 7 50 -1 -1 0.000 0 0 -1 0 0 2
	 450 4050 4050 4050
2 1 0 1 0 0 50 -1 41 0.000 0 0 -1 1 1 2
	0 0 1.00 60.00 120.00
	0 0 1.00 60.00 120.00
	 0 450 0 900
2 1 0 1 0 0 50 -1 41 0.000 0 0 -1 1 1 2
	0 0 1.00 60.00 120.00
	0 0 1.00 60.00 120.00
	 450 0 900 0
2 1 0 1 0 7 50 -1 -1 0.000 0 0 -1 0 0 2
	 450 4050 4050 4050
2 2 0 3 0 7 50 -1 -1 0.000 0 0 -1 0 0 5
	 450 450 4050 450 4050 4050 450 4050 450 450
4 0 0 50 -1 0 12 0.0000 6 180 315 450 4500 $x$\001
4 0 0 50 -1 0 12 0.0000 6 210 315 0 3825 $y$\001
4 0 0 50 -1 0 12 0.0000 6 195 765 2250 4275 \\texttt{i}\001
4 0 0 50 -1 0 12 0.0000 6 195 780 0 2250 \\texttt{j}\001
4 0 0 50 -1 0 12 0.0000 6 195 1005 0 1800 \\texttt{j+1}\001
4 0 0 50 -1 0 12 0.0000 6 195 945 0 2700 \\texttt{j-1}\001
4 0 0 50 -1 0 12 0.0000 6 195 930 1620 4275 \\texttt{i-1}\001
4 0 0 50 -1 0 12 0.0000 6 195 990 2610 4275 \\texttt{i+1}\001
4 0 0 50 -1 0 12 0.0000 6 180 885 540 225 $\\Delta x$\001
4 0 0 50 -1 0 12 0.0000 6 210 885 90 765 $\\Delta y$\001
